// Jest Snapshot v1, https://goo.gl/fbAQLP

exports[`PianoLoader container renders correctly 1`] = `
<div
  className="piano"
>
  <ul>
    <li
      className="white c"
      data-testid="li-c"
      id="0-c"
      onClick={[Function]}
    >
      <div>
        C
      </div>
    </li>
    <li
      className="black "
      data-testid="li-"
      id="0-"
      onClick={[Function]}
    >
      <div>
        
      </div>
    </li>
    <li
      className="white d"
      data-testid="li-d"
      id="0-d"
      onClick={[Function]}
    >
      <div>
        D
      </div>
    </li>
    <li
      className="black "
      data-testid="li-"
      id="0-"
      onClick={[Function]}
    >
      <div>
        
      </div>
    </li>
    <li
      className="white e"
      data-testid="li-e"
      id="0-e"
      onClick={[Function]}
    >
      <div>
        E
      </div>
    </li>
    <li
      className="white f"
      data-testid="li-f"
      id="0-f"
      onClick={[Function]}
    >
      <div>
        F
      </div>
    </li>
    <li
      className="black "
      data-testid="li-"
      id="0-"
      onClick={[Function]}
    >
      <div>
        
      </div>
    </li>
    <li
      className="white g"
      data-testid="li-g"
      id="0-g"
      onClick={[Function]}
    >
      <div>
        G
      </div>
    </li>
    <li
      className="black "
      data-testid="li-"
      id="0-"
      onClick={[Function]}
    >
      <div>
        
      </div>
    </li>
    <li
      className="white a"
      data-testid="li-a"
      id="0-a"
      onClick={[Function]}
    >
      <div>
        A
      </div>
    </li>
    <li
      className="black "
      data-testid="li-"
      id="0-"
      onClick={[Function]}
    >
      <div>
        
      </div>
    </li>
    <li
      className="white b"
      data-testid="li-b"
      id="0-b"
      onClick={[Function]}
    >
      <div>
        B
      </div>
    </li>
  </ul>
  <br />
  <label
    data-testid="log-label"
  >
    Log: 
    
  </label>
  <br />
  <div
    className="player prompt"
  >
    Type in the piano keyboard letters, each separated by a coma (,) and click the Play button.
  </div>
  <input
    className="player text-field"
    name="piano-keys"
    onChange={[Function]}
    placeholder="Example: a,b,c,E,f,G"
    type="text"
  />
  <button
    disabled={true}
    onClick={[Function]}
  >
    Play
  </button>
  <br />
  <span
    className="player error"
  >
    
  </span>
</div>
`;
